%YAML 1.1
%TAG !u! tag:unity3d.com,2011:
--- !u!114 &11400000
MonoBehaviour:
  m_ObjectHideFlags: 0
  m_CorrespondingSourceObject: {fileID: 0}
  m_PrefabInstance: {fileID: 0}
  m_PrefabAsset: {fileID: 0}
  m_GameObject: {fileID: 0}
  m_Enabled: 1
  m_EditorHideFlags: 0
  m_Script: {fileID: 11500000, guid: d4129ad524849438b8c90906d88d0f78, type: 3}
  m_Name: LoginConfig
  m_EditorClassIdentifier: 
  webClientId_IOS: 768321683801-7nib1ad0659ntdqgptctbf8ppqkkovog.apps.googleusercontent.com
  webClientId_Android: 788325864052-gfghambsn20es2euph56sc363gh44f4s.apps.googleusercontent.com
